"Task Completed","Navigation Style","First Interaction","Average Number of Interactions Made","Average Number of Seconds Spent"
Yes,"Multi-Level Navigation Style","Website Content",5,13.75
No,"Off Canvas Navigation Style","Website Content",8,10.5
No,"Full Screen Navigation Style","Website Content",1.5,14.75
