source,target,value
/index.php,/consulting/index.php,4
/consulting/index.php,/index.php,3
/index.php,/ux-certification/index.php,2
/index.php,/training/index.php,8
/training/index.php,/in-house-training/index.php,2
/index.php,/reports/index.php,3
/reports/index.php,/reports/free/index.php,1
/reports/free/index.php,/reports/how-to-recruit-participants-usability-studies/index.php,1
/index.php,/topic/user-testing/index.php,1
/topic/user-testing/index.php,/articles/employees-user-test/index.php,1
/articles/employees-user-test/index.php,/topic/mobile-and-tablet-design/all/index.php,1
/topic/mobile-and-tablet-design/all/index.php,/topic/mobile-and-tablet-design/index.php,1
/topic/mobile-and-tablet-design/index.php,/articles/context-specific-cross-channel/index.php,1
/index.php,/people/index.php,2
/people/index.php,/index.php,2
/index.php,/about/index.php,1
/about/index.php,/reports/index.php,1
/reports/index.php,/index.php,2
/index.php,/reports/best-merged-intranets/index.php,1
/reports/best-merged-intranets/index.php,/index.php,1
/consulting/index.php,/consulting/expert-design-review/index.php,1
/training/index.php,/courses/index.php,1
/courses/index.php,/index.php,1
/training/index.php,/index.php,1
/training/index.php,/training/london/index.php,1
/training/london/index.php,/training/register/87/index.php,1
/consulting/index.php,/consulting/usability-testing/index.php,1
